7 85
85 37
72 39
49 44
7 25
73 22
10 49
85 2
80 71
68 17
65 47
28 68
17 41
47 73
17 87
4 7
29 3
64 12
18 86
86 48
71 84
9 47
16 82
92 16
24 90
3 73
24 6
97 60
10 23
76 45
51 92
37 61
56 34
25 41
43 31
46 62
67 13
45 32
13 39
66 88
67 4
6 96
94 27
47 98
77 57
61 32
100 21
38 23
47 83
50 34
38 31
33 80
51 77
75 88
82 43
48 38
95 72
60 87
60 97
84 79
19 75
49 94
15 2
35 41
60 84
95 87
71 55
20 57
38 54
83 88
62 6
23 8
34 6
23 48
35 62
4 82
43 8
52 15
34 51
2 84
66 10
82 58
78 26
44 68
45 69
14 45
58 91
36 69
69 85
41 42
61 37
99 2
88 63
54 3
30 67
36 73
86 10
13 72
86 85
45 54
25 77
8 18
64 76
97 31
51 70
38 5
87 80
28 29
63 83
42 45
20 80
29 95
2 27
41 52
46 46
72 75
36 21
83 92
21 51
73 37
73 36
88 65
7 33
76 19
49 47
72 29
36 26
23 9
95 94
21 38
70 92
82 84
58 45
39 9
83 33
37 31
44 56
13 14
75 43
18 2
21 85
72 25
46 85
88 7
43 82
9 1
12 21
88 78
81 42
7 30
99 36
87 35
88 54
96 8
35 71
58 13
67 76
80 85
2 87
69 54
55 59
40 3
42 2
89 35
5 90
29 69
25 45
90 81
70 82
23 24
84 5
48 95
23 100
15 42
67 10
52 61
7 37
10 99
43 17
98 33
93 38
46 22
33 85
14 63
36 32
42 16
9 88
27 72
42 100
97 48
15 93
42 42
48 100
48 73
92 100
21 68
99 29
3 86
94 26
35 69
84 16
38 71
8 43
26 87
14 58
23 42
42 42
20 81
90 57
47 6
56 49
28 45
55 27
58 80
3 23
55 32
33 88
35 71
54 65
36 99
1 30
89 57
77 57
10 86
99 73
61 3
65 44
38 26
72 32
63 90
79 42
67 17
81 28
61 49
15 64
82 2
14 3
54 68
78 73
67 25
64 20
17 19
43 29
41 75
28 90
89 73
5 38
45 79
48 71
16 53
1 1
2 2
